<svg xmlns="http://www.w3.org/2000/svg" width="26" height="18" viewBox="0 0 26 18">
    <path fill="#000" fill-rule="nonzero" d="M23.267 2H2.733C2.328 2 2 1.552 2 1s.328-1 .733-1h20.534c.405 0 .733.448.733 1s-.328 1-.733 1zm0 14c.405 0 .733.448.733 1s-.328 1-.733 1H2.733C2.328 18 2 17.552 2 17s.328-1 .733-1h20.534zm0-8c.405 0 .733.448.733 1s-.328 1-.733 1H2.733C2.328 10 2 9.552 2 9s.328-1 .733-1h20.534z"/>
</svg>
